Working with FARS Data
…
# devtools::install_github("madams1/courserapackage")
require(courserapackage)
require(dplyr)
require(readr)

fars_2015_file <- system.file("extdata", make_filename(2015), package = "courserapackage")
fars_path <- dirname(fars_2015_file)
fars_2015_data <- fars_read(fars_2015_file)

We can see what this data looks like:

fars_2015_data

## # A tibble: 32,166 × 52
##    STATE ST_CASE VE_TOTAL VE_FORMS PVH_INVL  PEDS PERNOTMVIT PERMVIT
##    <int>   <int>    <int>    <int>    <int> <int>      <int>   <int>
## 1      1   10001        1        1        0     0          0       1
## 2      1   10002        1        1        0     0          0       1
## 3      1   10003        1        1        0     0          0       2
## 4      1   10004        1        1        0     0          0       1
## 5      1   10005        2        2        0     0          0       2
## 6      1   10006        1        1        0     0          0       2
## 7      1   10007        1        1        0     0          0       2
## 8      1   10008        1        1        0     1          1       1
## 9      1   10009        1        1        0     0          0       1
## 10     1   10010        2        2        0     0          0       2
## # ... with 32,156 more rows, and 44 more variables: PERSONS <int>,
## #   COUNTY <int>, CITY <int>, DAY <int>, MONTH <int>, YEAR <int>,
## #   DAY_WEEK <int>, HOUR <int>, MINUTE <int>, NHS <int>, RUR_URB <int>,
## #   FUNC_SYS <int>, RD_OWNER <int>, ROUTE <int>, TWAY_ID <chr>,
## #   TWAY_ID2 <chr>, MILEPT <int>, LATITUDE <dbl>, LONGITUD <dbl>,
## #   SP_JUR <int>, HARM_EV <int>, MAN_COLL <int>, RELJCT1 <int>,
## #   RELJCT2 <int>, TYP_INT <int>, WRK_ZONE <int>, REL_ROAD <int>,
## #   LGT_COND <int>, WEATHER1 <int>, WEATHER2 <int>, WEATHER <int>,
## #   SCH_BUS <int>, RAIL <chr>, NOT_HOUR <int>, NOT_MIN <int>,
…
